{
    "name": "Controls",
    "maps": [
        {
            "name": "Controls",
            "id": "80a03cfd-0652-46ff-b25c-905fbd477e10",
            "actions": [
                {
                    "name": "Aim",
                    "type": "Value",
                    "id": "c1ce330a-4206-48f9-abd6-cb0647ba0bab",
                    "expectedControlType": "Vector2",
                    "processors": "",
                    "interactions": ""
                }
            ],
            "bindings": [
                {
                    "name": "",
                    "id": "cbbd3493-2b60-4245-8ebb-c2a73731cd9f",
                    "path": "<Pointer>/position",
                    "interactions": "",
                    "processors": "",
                    "groups": "",
                    "action": "Aim",
                    "isComposite": false,
                    "isPartOfComposite": false
                }
            ]
        }
    ],
    "controlSchemes": [
        {
            "name": "Mouse",
            "bindingGroup": "Mouse",
            "devices": [
                {
                    "devicePath": "<Mouse>",
                    "isOptional": true,
                    "isOR": false
                }
            ]
        }
    ]
}